…
[1] "text"  "text"  "text"  "text"  "text"  "text"  "guess" "guess"
> cz <- read_excel("cz00_eqv_v1.xls", sheet=1, col_types = ct )
> cz  <- cz %>% mutate(STATE = substr(FIPS,1,2),
+                      COUNTY = substr(FIPS,3,5),
+                      county = paste(FIPS, `County Name`))
> 
> czpa  <- cz %>% filter(STATE=="42")
> 
> passhe  <- left_join(x=ipeds, y=czpa, by=c("CNTY"="FIPS") )
> 
> ## Find the list of all counties in a commuting zone with a university
> temp  <- left_join(x=passhe, y=czpa, by="Commuting Zone ID, 2000", suffix=c(".x",""))
> temp %>% group_by(county) %>% summarize(CZ=first(`Commuting Zone ID, 2000`), passhe=paste(name, collapse=", ")) %>% arrange(county)
`summarise()` ungrouping output (override with `.groups` argument)
# A tibble: 51 x 3
   county                 CZ    passhe                                          
   <chr>                  <chr> <chr>                                           
 1 42001 Adams County     251   Millersville University, Shippensburg University
 2 42003 Allegheny County 203   California University, Slippery Rock University 
 3 42005 Armstrong County 203   California University, Slippery Rock University 
 4 42007 Beaver County    203   California University, Slippery Rock University 
 5 42009 Bedford County   420   Indiana University                              
 6 42011 Berks County     231   Kutztown University                             
 7 42013 Blair County     420   Indiana University                              
 8 42015 Bradford County  358   Lock Haven University                           
 9 42017 Bucks County     316   Cheyney University, West Chester University     
10 42019 Butler County    203   California University, Slippery Rock University 
# … with 41 more rows
…
